Lab_Logica/ula/simulation/qsim/ula.msim.vcd
$comment
	File created using the following command:
		vcd file ula.msim.vcd -direction
$end
$date
	Fri Mar 15 13:25:08 2024
$end
$version
	Questa Intel Starter FPGA Edition Version 2021.2
$end
$timescale
	1ps
$end

$scope module ula_vhd_vec_tst $end
$var wire 1 ! a [3] $end
$var wire 1 " a [2] $end
$var wire 1 # a [1] $end
$var wire 1 $ a [0] $end
$var wire 1 % b [3] $end
$var wire 1 & b [2] $end
$var wire 1 ' b [1] $end
$var wire 1 ( b [0] $end
$var wire 1 ) f [1] $end
$var wire 1 * f [0] $end
$var wire 1 + Y [3] $end
$var wire 1 , Y [2] $end
$var wire 1 - Y [1] $end
$var wire 1 . Y [0] $end
$var wire 1 / z $end

$scope module i1 $end
$var wire 1 0 vcc $end
$var wire 1 1 devoe $end
$var wire 1 2 ww_devoe $end
$var wire 1 3 ww_a [3] $end
$var wire 1 4 ww_a [2] $end
$var wire 1 5 ww_a [1] $end
$var wire 1 6 ww_a [0] $end
$var wire 1 7 ww_b [3] $end
$var wire 1 8 ww_b [2] $end
$var wire 1 9 ww_b [1] $end
$var wire 1 : ww_b [0] $end
$var wire 1 ; ww_f [1] $end
$var wire 1 < ww_f [0] $end
$var wire 1 = ww_Y [3] $end
$var wire 1 > ww_Y [2] $end
$var wire 1 ? ww_Y [1] $end
$var wire 1 @ ww_Y [0] $end
$var wire 1 A ww_z $end
$var wire 1 B \~QUARTUS_CREATED_ADC1~_CHSEL_bus\ [4] $end
$var wire 1 C \~QUARTUS_CREATED_ADC1~_CHSEL_bus\ [3] $end
$var wire 1 D \~QUARTUS_CREATED_ADC1~_CHSEL_bus\ [2] $end
$var wire 1 E \~QUARTUS_CREATED_ADC1~_CHSEL_bus\ [1] $end
$var wire 1 F \~QUARTUS_CREATED_ADC1~_CHSEL_bus\ [0] $end
$var wire 1 G \~QUARTUS_CREATED_GND~I_combout\ $end
$var wire 1 H \~QUARTUS_CREATED_UNVM~~busy\ $end
$var wire 1 I \~QUARTUS_CREATED_ADC1~~eoc\ $end
$var wire 1 J \~QUARTUS_CREATED_ADC2~~eoc\ $end
$var wire 1 K \Y[0]~output_o\ $end
$var wire 1 L \Y[1]~output_o\ $end
$var wire 1 M \Y[2]~output_o\ $end
$var wire 1 N \Y[3]~output_o\ $end
$var wire 1 O \z~output_o\ $end
$var wire 1 P \f[1]~input_o\ $end
$var wire 1 Q \b[0]~input_o\ $end
$var wire 1 R \f[0]~input_o\ $end
$var wire 1 S \a[0]~input_o\ $end
$var wire 1 T \mult4|y[0]~0_combout\ $end
$var wire 1 U \b[1]~input_o\ $end
$var wire 1 V \mult4|y[1]~1_combout\ $end
$var wire 1 W \a[1]~input_o\ $end
$var wire 1 X \mult4|y[1]~2_combout\ $end
$var wire 1 Y \adder|Porta1|cout~0_combout\ $end
$var wire 1 Z \adder|Porta2|cout~0_combout\ $end
$var wire 1 [ \b[2]~input_o\ $end
$var wire 1 \ \mult4|y[2]~3_combout\ $end
$var wire 1 ] \a[2]~input_o\ $end
$var wire 1 ^ \mult4|y[2]~4_combout\ $end
$var wire 1 _ \b[3]~input_o\ $end
$var wire 1 ` \mult4|y[3]~5_combout\ $end
$var wire 1 a \mult4|y[3]~6_combout\ $end
$var wire 1 b \a[3]~input_o\ $end
$var wire 1 c \mult4|y[3]~7_combout\ $end
$var wire 1 d \outz|z~combout\ $end
$var wire 1 e \outz|ALT_INV_z~combout\ $end
$upscope $end
$upscope $end
$enddefinitions $end
#0
$dumpvars
1/
10
11
12
1A
0G
zH
zI
zJ
0K
0L
0M
0N
1O
0P
0Q
0R
0S
0T
0U
0V
0W
0X
0Y
0Z
0[
0\
0]
0^
0_
0`
0a
0b
0c
0d
1e
0!
0"
0#
0$
0%
0&
0'
0(
0)
0*
03
04
05
06
07
08
09
0:
0;
0<
0B
0C
0D
0E
0F
0+
0,
0-
0.
0=
0>
0?
0@
$end
#50000
1*
1<
1R
1T
1V
1Y
1^
1c
1K
1M
1N
1Z
1X
1d
1@
1>
1=
0e
1.
1,
1+
1L
1`
1?
0O
1-
0A
0/
#100000
0*
1)
0<
1;
0R
1P
1\
1a
0T
0V
0Y
0Z
0^
0`
0c
0K
0M
0N
0a
0\
0X
1c
1^
0@
0>
0=
0.
0,
0+
0L
1N
1M
0^
0c
0?
1=
1>
0-
1,
1+
0M
0N
0d
0>
0=
1e
0,
0+
1O
1A
1/
#150000
1*
1(
1<
1:
1R
1Q
1T
1V
1^
1c
1K
1M
1N
1X
1d
1@
1>
1=
0e
1.
1,
1+
1L
1?
0O
1-
0A
0/
#200000
0*
0)
1'
0<
0;
19
0R
0P
1U
0X
0T
0V
0^
0c
0L
0K
0M
0N
0d
0?
0@
0>
0=
1e
0.
0-
0,
0+
1O
1A
1/
#250000
1*
1&
1<
18
1R
1[
1\
1V
1^
1c
1M
1N
1d
0^
1>
1=
0e
1,
1+
0M
0>
0O
0,
0A
0/
#300000
0*
1)
0(
1%
0<
1;
0:
17
0R
1P
0Q
1_
1a
0V
1^
0c
1M
0N
1X
1c
1>
0=
1,
0+
1L
1N
1?
1=
1-
1+
#350000
1*
1$
1<
16
1R
1S
1T
1Y
0^
0c
1K
0M
0N
1@
0>
0=
1.
0,
0+
#400000
0*
0)
0'
1#
0<
0;
09
15
0R
0P
0U
1W
0X
0T
0Y
1Z
0L
0K
1`
0Z
0d
0?
0@
1e
0.
0-
0`
1O
1A
1/
#450000
1*
1(
1"
1<
1:
14
1R
1Q
1]
1V
1Y
1Z
1`
1X
1L
1d
1?
0e
1-
0O
0A
0/
#500000
0*
1)
0&
1!
0<
1;
08
13
0R
1P
0[
1b
0X
0a
0L
1c
0d
0?
1e
0-
1N
1d
1=
1O
0e
1+
1A
1/
0O
0A
0/
#550000
1*
1<
1R
0V
1^
0c
1M
0N
1X
1>
0=
1,
0+
1L
1?
1-
#600000
0*
0)
0(
1'
0%
0<
0;
0:
19
07
0R
0P
0Q
1U
0_
0\
0Y
0^
0M
0>
0,
#650000
1*
1<
1R
1T
1V
1Y
0Z
1^
1c
1K
1M
1N
1Z
0X
1@
1>
1=
1.
1,
1+
0L
0?
0-
#700000
0*
1)
0$
0<
1;
06
0R
1P
0S
1X
1\
1a
0T
0V
0Y
1L
0K
0X
0c
0^
1?
0@
0.
1-
0L
0N
0M
0d
0?
0=
0>
1e
0-
0,
0+
1O
1A
1/
#750000
1*
1(
1&
1<
1:
18
1R
1Q
1[
0\
1T
1V
0Z
1^
1c
1K
1M
1N
1\
0`
1X
1d
0^
1@
1>
1=
0e
1.
1,
1+
1L
0M
0a
1^
1?
0>
0O
1-
0,
0A
1M
0c
0/
1>
1,
0N
0=
0+
#800000
0*
0)
0'
0#
0<
0;
09
05
0R
0P
0U
0W
0T
0V
1`
0K
0X
0@
0.
0L
0?
0-
#850000
1*
1<
1R
1V
0^
0`
1c
0M
1N
1X
0>
1=
0,
1+
1L
1?
1-
#900000
0*
1)
0(
1%
0"
0<
1;
0:
17
04
0R
1P
0Q
1_
0]
1a
0V
1^
1M
0X
0c
1>
1,
0L
0N
0?
0=
0-
0+
#950000
1*
1<
1R
1Y
0^
1c
0M
1N
1Z
0>
1=
0,
1+
0\
1^
1M
1>
1,
