Lab_Logica/MULTI4_1/simulation/qsim/Multi4_1.msim.vcd
$comment
	File created using the following command:
		vcd file Multi4_1.msim.vcd -direction
$end
$date
	Tue Mar  5 14:03:25 2024
$end
$version
	Questa Intel Starter FPGA Edition Version 2021.2
$end
$timescale
	1ps
$end

$scope module multi4_1_vhd_vec_tst $end
$var wire 1 ! d0 [1] $end
$var wire 1 " d0 [0] $end
$var wire 1 # d1 [1] $end
$var wire 1 $ d1 [0] $end
$var wire 1 % d2 [1] $end
$var wire 1 & d2 [0] $end
$var wire 1 ' d3 [1] $end
$var wire 1 ( d3 [0] $end
$var wire 1 ) s [1] $end
$var wire 1 * s [0] $end
$var wire 1 + y [1] $end
$var wire 1 , y [0] $end

$scope module i1 $end
$var wire 1 - vcc $end
$var wire 1 . devoe $end
$var wire 1 / ww_devoe $end
$var wire 1 0 ww_d0 [1] $end
$var wire 1 1 ww_d0 [0] $end
$var wire 1 2 ww_d1 [1] $end
$var wire 1 3 ww_d1 [0] $end
$var wire 1 4 ww_d2 [1] $end
$var wire 1 5 ww_d2 [0] $end
$var wire 1 6 ww_d3 [1] $end
$var wire 1 7 ww_d3 [0] $end
$var wire 1 8 ww_s [1] $end
$var wire 1 9 ww_s [0] $end
$var wire 1 : ww_y [1] $end
$var wire 1 ; ww_y [0] $end
$var wire 1 < \~QUARTUS_CREATED_ADC1~_CHSEL_bus\ [4] $end
$var wire 1 = \~QUARTUS_CREATED_ADC1~_CHSEL_bus\ [3] $end
$var wire 1 > \~QUARTUS_CREATED_ADC1~_CHSEL_bus\ [2] $end
$var wire 1 ? \~QUARTUS_CREATED_ADC1~_CHSEL_bus\ [1] $end
$var wire 1 @ \~QUARTUS_CREATED_ADC1~_CHSEL_bus\ [0] $end
$var wire 1 A \~QUARTUS_CREATED_GND~I_combout\ $end
$var wire 1 B \~QUARTUS_CREATED_UNVM~~busy\ $end
$var wire 1 C \~QUARTUS_CREATED_ADC1~~eoc\ $end
$var wire 1 D \~QUARTUS_CREATED_ADC2~~eoc\ $end
$var wire 1 E \y[0]~output_o\ $end
$var wire 1 F \y[1]~output_o\ $end
$var wire 1 G \s[1]~input_o\ $end
$var wire 1 H \d1[0]~input_o\ $end
$var wire 1 I \s[0]~input_o\ $end
$var wire 1 J \d0[0]~input_o\ $end
$var wire 1 K \y~0_combout\ $end
$var wire 1 L \d3[0]~input_o\ $end
$var wire 1 M \d2[0]~input_o\ $end
$var wire 1 N \y~1_combout\ $end
$var wire 1 O \d3[1]~input_o\ $end
$var wire 1 P \d1[1]~input_o\ $end
$var wire 1 Q \d0[1]~input_o\ $end
$var wire 1 R \d2[1]~input_o\ $end
$var wire 1 S \y~2_combout\ $end
$var wire 1 T \y~3_combout\ $end
$upscope $end
$upscope $end
$enddefinitions $end
#0
$dumpvars
1-
1.
1/
0A
zB
zC
zD
0E
0F
0G
0H
0I
0J
0K
0L
0M
0N
0O
0P
0Q
0R
0S
0T
0!
0"
0#
0$
0%
0&
0'
0(
0)
0*
00
01
02
03
04
05
06
07
08
09
0<
0=
0>
0?
0@
0+
0,
0:
0;
$end
#50000
1(
1)
17
18
1L
1G
#100000
0(
0)
1'
1*
07
16
19
08
0L
1O
1I
0G
#150000
1(
1)
1&
17
18
15
1L
1G
1M
1K
1S
1N
1E
1T
1;
1,
1F
1:
1+
#200000
0(
0)
0'
0*
1%
07
06
09
08
14
0L
0O
0I
0G
1R
0K
0S
0T
0N
0F
0E
0:
0;
0,
0+
#250000
1(
1)
1$
17
18
13
1L
1G
1H
1S
1N
1E
1T
1;
1,
1F
1:
1+
#300000
0(
0)
1'
1*
0&
1#
07
16
19
08
05
12
0L
1O
1I
0G
0M
1P
1K
0S
0N
0E
1N
0;
0,
1E
1;
1,
#350000
1(
1)
1"
17
18
11
1L
1G
1J
1S
#400000
0(
0)
0'
0*
0%
1!
07
06
09
08
04
10
0L
0O
0I
0G
0R
1Q
#450000
1(
1)
1&
17
18
15
1L
1G
1M
0K
0S
0T
0F
0:
0+
#500000
0(
0)
1'
1*
0$
07
16
19
08
03
0L
1O
1I
0G
0H
1T
0N
1F
0E
1:
0;
0,
1+
#550000
1(
1)
17
18
1L
1G
1K
1S
1N
1E
1;
1,
#600000
0(
0)
0'
0*
0&
1%
0#
07
06
09
08
05
14
02
0L
0O
0I
0G
0M
1R
0P
#650000
1(
1)
17
18
1L
1G
0K
0N
0E
0;
0,
#700000
0(
0)
1'
1*
0"
07
16
19
08
01
0L
1O
1I
0G
0J
0S
0T
0F
0:
0+
#750000
1(
1)
1&
1$
17
18
15
13
1L
1G
1M
1H
1K
1S
1N
1E
1T
1;
1,
1F
1:
1+
#800000
0(
0)
0'
0*
0%
0!
07
06
09
08
04
00
0L
0O
0I
0G
0R
0Q
0K
0S
0T
0N
0F
0E
0:
0;
0,
0+
#850000
1(
1)
17
18
1L
1G
1N
1E
1;
1,
#900000
0(
0)
1'
1*
0&
1#
07
16
19
08
05
12
0L
1O
1I
0G
0M
1P
1K
1T
0N
1F
0E
1N
1:
0;
0,
1+
1E
1;
1,
#950000
1(
1)
17
18
1L
1G
1S
